<?xml version="1.0" encoding="UTF-8"?>

<svg version="1.2" baseProfile="tiny" width="210mm" height="297mm" viewBox="0 0 21000 29700" preserveAspectRatio="xMidYMid" fill-rule="evenodd" clip-path="url(#presentation_clip_path)" stroke-width="28.222" stroke-linejoin="round" xmlns="http://www.w3.org/2000/svg" xmlns:ooo="http://xml.openoffice.org/svg/export" xmlns:xlink="http://www.w3.org/1999/xlink" xml:space="preserve">
 <defs class="ClipPathGroup">
  <clipPath id="presentation_clip_path" clipPathUnits="userSpaceOnUse">
   <rect x="0" y="0" width="21000" height="29700"/>
  </clipPath>
 </defs>
 <defs>
  <font id="EmbeddedFont_1" horiz-adv-x="2048">
   <font-face font-family="Liberation Serif embedded" units-per-em="2048" font-weight="normal" font-style="normal" ascent="1826" descent="450"/>
   <missing-glyph horiz-adv-x="2048" d="M 0,0 L 2047,0 2047,2047 0,2047 0,0 Z"/>
   <glyph unicode="ч" horiz-adv-x="954" d="M 322,552 C 322,533 325,514 332,497 338,480 347,465 359,452 371,439 386,428 404,421 422,414 443,410 466,410 503,410 542,413 583,420 624,426 663,434 701,443 L 701,870 576,895 576,940 981,940 981,895 867,870 867,70 981,45 981,0 576,0 576,45 701,70 701,387 C 678,376 653,364 628,353 602,342 576,332 550,323 523,314 497,306 470,301 443,296 417,293 391,293 345,293 307,301 277,316 246,331 222,350 205,374 187,398 174,425 167,456 160,487 156,518 156,549 L 156,870 31,895 31,940 436,940 436,895 322,870 322,552 Z"/>
   <glyph unicode="т" horiz-adv-x="848" d="M 865,940 L 865,672 810,672 767,838 C 744,842 714,846 679,851 643,855 606,857 568,857 L 530,857 530,70 664,45 664,0 219,0 219,45 364,70 364,857 327,857 C 289,857 252,855 217,851 181,846 151,842 128,838 L 85,672 30,672 30,940 865,940 Z"/>
   <glyph unicode="с" horiz-adv-x="795" d="M 846,57 C 829,44 808,33 784,24 760,14 734,6 707,-1 680,-7 651,-12 622,-15 592,-18 563,-20 535,-20 454,-20 384,-9 327,14 269,36 222,68 185,111 148,154 121,206 104,268 87,329 78,399 78,477 78,562 89,636 112,698 134,759 165,810 205,850 245,889 293,918 348,937 403,956 463,965 528,965 582,965 634,962 685,956 736,949 782,942 823,934 L 823,672 768,672 725,838 C 700,852 671,863 636,872 601,881 564,885 526,885 483,885 445,877 412,862 379,846 351,822 328,788 305,755 287,713 276,662 264,610 258,549 258,478 258,418 263,364 273,316 283,268 301,227 326,193 351,159 386,133 429,114 472,95 526,86 592,86 615,86 638,86 662,86 685,86 708,88 731,91 753,94 774,98 794,103 813,107 831,112 846,117 L 846,57 Z"/>
   <glyph unicode="р" horiz-adv-x="928" d="M 152,870 L 45,895 45,940 309,940 311,885 C 325,897 342,908 361,918 380,927 400,936 422,943 444,950 467,955 492,959 517,963 542,965 567,965 626,965 678,955 725,934 772,913 811,883 844,842 877,801 902,750 919,690 936,629 944,560 944,481 944,404 935,335 918,274 901,212 875,159 840,116 805,72 762,38 710,15 657,-8 596,-20 526,-20 492,-20 456,-18 419,-15 381,-11 345,-5 311,2 312,-6 313,-15 314,-26 315,-36 315,-46 316,-58 316,-68 316,-79 317,-88 317,-97 317,-105 317,-111 L 317,-365 481,-389 481,-436 33,-436 33,-389 152,-365 152,870 Z M 764,481 C 764,549 758,607 747,655 736,703 719,742 698,773 676,803 649,825 618,839 587,853 551,860 512,860 480,860 446,857 410,852 373,846 342,838 317,827 L 317,76 C 345,71 376,67 410,64 444,61 478,59 512,59 600,59 664,96 704,169 744,242 764,346 764,481 Z"/>
   <glyph unicode="п" horiz-adv-x="1033" d="M 162,870 L 37,895 37,940 1048,940 1048,895 934,870 934,70 1048,45 1048,0 643,0 643,45 768,70 768,857 328,857 328,70 442,45 442,0 37,0 37,45 162,70 162,870 Z"/>
   <glyph unicode="о" horiz-adv-x="901" d="M 946,475 C 946,316 910,193 839,108 768,23 657,-20 506,-20 365,-20 258,22 186,107 114,192 78,314 78,475 78,634 114,755 186,839 258,923 367,965 514,965 657,965 764,924 837,842 910,759 946,637 946,475 Z M 766,475 C 766,540 762,598 753,649 744,700 730,743 710,778 689,813 662,839 629,858 596,876 555,885 506,885 457,885 416,876 384,858 352,839 327,813 308,778 289,743 276,700 269,649 262,598 258,540 258,475 258,410 262,351 269,300 276,249 289,205 308,170 327,134 352,107 384,88 416,69 457,59 506,59 555,59 596,69 629,88 662,107 689,134 710,170 730,205 744,249 753,300 762,351 766,410 766,475 Z"/>
   <glyph unicode="н" horiz-adv-x="1033" d="M 162,870 L 37,895 37,940 442,940 442,895 328,870 328,522 768,522 768,870 643,895 643,940 1048,940 1048,895 934,870 934,70 1048,45 1048,0 643,0 643,45 768,70 768,439 328,439 328,70 442,45 442,0 37,0 37,45 162,70 162,870 Z"/>
   <glyph unicode="л" horiz-adv-x="980" d="M 145,86 C 159,86 172,95 185,112 198,129 211,158 224,199 237,240 250,293 264,360 277,426 292,508 307,605 L 349,870 218,895 218,940 974,940 974,895 860,870 860,70 974,45 974,0 569,0 569,45 694,70 694,857 439,857 396,578 C 382,487 368,405 355,332 341,258 325,195 306,143 287,91 263,51 235,23 206,-6 171,-20 128,-20 106,-20 86,-16 68,-10 49,-2 35,5 26,13 L 20,176 65,176 96,123 C 100,116 107,108 116,99 125,90 134,86 145,86 Z"/>
   <glyph unicode="к" horiz-adv-x="980" d="M 162,870 L 37,895 37,940 442,940 442,895 328,870 328,454 712,868 614,895 614,940 946,940 946,895 829,872 561,598 905,68 997,45 997,0 622,0 622,45 708,70 450,475 328,371 328,70 442,45 442,0 37,0 37,45 162,70 162,870 Z"/>
   <glyph unicode="и" horiz-adv-x="1033" d="M 162,870 L 37,895 37,940 442,940 442,895 328,870 328,279 768,755 768,870 643,895 643,940 1048,940 1048,895 934,870 934,70 1048,45 1048,0 643,0 643,45 768,70 768,642 328,166 328,70 442,45 442,0 37,0 37,45 162,70 162,870 Z"/>
   <glyph unicode="з" horiz-adv-x="689" d="M 545,486 C 574,481 600,473 624,461 647,448 668,433 685,415 702,397 716,377 726,354 735,331 740,307 740,282 740,183 706,108 637,57 568,6 464,-20 324,-20 298,-20 271,-18 244,-14 217,-10 191,-5 167,2 143,8 121,15 102,24 83,33 68,42 58,51 L 58,111 C 85,103 119,97 158,92 197,87 238,84 279,84 334,84 380,89 417,99 453,109 482,123 503,140 524,157 539,178 548,202 556,225 560,251 560,278 560,307 554,331 543,352 532,373 517,390 498,403 479,416 458,426 434,433 409,440 384,443 358,443 L 238,443 238,526 359,526 C 392,526 420,531 443,540 466,549 486,562 501,578 516,593 528,612 535,633 542,654 546,676 546,700 546,761 531,807 502,838 472,869 422,885 351,885 324,885 295,881 266,872 237,863 212,852 193,838 L 157,702 102,702 102,934 C 139,942 179,949 221,956 262,962 308,965 358,965 484,965 576,945 633,904 690,863 719,800 719,713 719,659 703,614 671,577 639,540 597,511 545,492 L 545,486 Z"/>
   <glyph unicode="е" horiz-adv-x="769" d="M 260,473 L 260,455 C 260,406 264,360 271,315 278,270 292,231 313,197 334,162 363,135 401,115 439,94 489,84 551,84 571,84 592,85 614,87 636,88 658,90 680,93 702,96 723,99 744,102 765,105 784,109 801,113 L 801,57 C 786,47 767,38 746,29 724,20 700,11 674,4 648,-3 620,-9 591,-14 562,-18 532,-20 502,-20 424,-20 358,-9 305,12 251,33 207,65 174,107 141,149 117,201 102,263 87,325 80,396 80,477 80,641 114,763 183,844 252,925 350,965 477,965 527,965 574,958 618,945 661,932 699,909 732,878 765,847 791,805 810,752 829,699 838,634 838,555 L 838,473 260,473 Z M 477,885 C 440,885 408,877 381,862 354,846 331,824 314,795 296,766 283,732 275,691 266,650 262,604 262,553 L 664,553 C 664,604 661,650 656,691 650,732 640,766 626,795 611,824 592,846 568,862 544,877 514,885 477,885 Z"/>
   <glyph unicode="г" horiz-adv-x="769" d="M 787,672 L 732,672 689,838 C 666,842 636,846 601,851 565,855 528,857 490,857 L 328,857 328,70 482,45 482,0 37,0 37,45 162,70 162,870 37,895 37,940 787,940 787,672 Z"/>
   <glyph unicode="в" horiz-adv-x="875" d="M 37,0 L 37,45 162,70 162,870 37,895 37,940 439,940 C 500,940 555,937 605,931 654,924 697,913 732,896 767,879 795,855 814,826 833,797 843,759 843,713 843,649 825,600 789,565 752,530 701,505 634,490 L 634,482 C 719,473 784,451 829,417 874,383 897,332 897,264 897,219 889,180 874,147 859,114 834,86 800,65 765,43 720,27 665,16 610,5 542,0 462,0 L 37,0 Z M 447,80 C 490,80 529,83 563,89 596,94 625,104 648,119 671,133 688,152 700,177 711,201 717,231 717,268 717,303 711,332 699,355 686,378 668,396 644,409 620,422 590,431 555,436 520,441 479,444 434,444 L 328,444 328,80 447,80 Z M 328,524 L 434,524 C 479,524 517,528 547,536 576,544 600,556 617,571 634,586 646,605 653,627 660,648 663,673 663,700 663,754 645,794 608,821 571,847 511,860 430,860 L 328,860 328,524 Z"/>
   <glyph unicode="а" horiz-adv-x="848" d="M 465,961 C 508,961 547,957 584,949 621,941 652,927 679,908 706,889 727,863 742,830 757,797 764,755 764,705 L 764,70 881,45 881,0 623,0 604,94 C 594,84 581,72 564,59 547,46 526,33 502,22 478,10 450,0 419,-8 387,-16 352,-20 313,-20 268,-20 230,-13 199,1 168,15 143,35 124,60 105,85 92,115 84,149 76,184 72,221 72,261 72,302 77,338 87,369 97,399 111,425 129,446 147,466 168,483 193,496 217,509 243,520 272,527 300,534 330,539 362,542 393,545 425,546 457,546 L 598,546 598,694 C 598,723 596,748 591,771 586,795 579,815 568,832 557,848 542,861 523,871 504,880 481,885 453,885 421,885 389,881 356,872 323,863 295,852 270,838 L 236,721 180,721 180,926 C 223,935 268,944 315,951 361,958 411,961 465,961 Z M 598,476 L 467,476 C 428,476 394,473 365,466 336,460 313,449 294,434 275,418 261,397 252,370 243,343 238,309 238,267 238,149 286,90 381,90 426,90 466,95 499,106 532,116 565,129 598,145 L 598,476 Z"/>
   <glyph unicode="П" horiz-adv-x="1377" d="M 59,0 L 59,53 231,80 231,1262 59,1288 59,1341 1419,1341 1419,1288 1247,1262 1247,80 1419,53 1419,0 883,0 883,53 1055,80 1055,1251 424,1251 424,80 596,53 596,0 59,0 Z"/>
   <glyph unicode="И" horiz-adv-x="1377" d="M 59,0 L 59,53 231,80 231,1262 59,1288 59,1341 596,1341 596,1288 424,1262 424,293 1055,1222 1055,1262 883,1288 883,1341 1419,1341 1419,1288 1247,1262 1247,80 1419,53 1419,0 883,0 883,53 1055,80 1055,1062 424,133 424,80 596,53 596,0 59,0 Z"/>
   <glyph unicode="Е" horiz-adv-x="1112" d="M 59,53 L 231,80 231,1262 59,1288 59,1341 1065,1341 1065,1020 999,1020 967,1242 C 946,1245 920,1246 890,1246 859,1246 828,1246 797,1246 766,1246 736,1246 708,1246 680,1246 658,1246 643,1246 L 424,1246 424,727 786,727 817,887 881,887 881,475 817,475 786,637 424,637 424,93 688,93 C 729,93 768,93 805,93 842,93 875,93 904,93 933,93 959,94 980,96 1001,98 1016,100 1026,102 L 1083,354 1149,354 1130,0 59,0 59,53 Z"/>
   <glyph unicode="Б" horiz-adv-x="1006" d="M 575,745 C 667,745 744,735 806,715 868,695 918,668 955,634 992,599 1018,560 1034,515 1049,470 1057,422 1057,372 1057,321 1049,274 1033,229 1017,184 990,144 952,110 914,76 864,49 801,30 738,10 659,0 565,0 L 59,0 59,53 231,79 231,1261 72,1288 72,1341 973,1341 986,1032 921,1032 864,1237 C 854,1239 840,1241 821,1243 802,1246 781,1248 756,1250 731,1252 703,1253 674,1253 644,1253 613,1253 581,1253 L 424,1253 424,745 575,745 Z M 858,363 C 858,409 853,450 842,486 831,522 813,553 788,578 762,603 728,622 686,635 643,648 591,655 528,655 L 424,655 424,90 522,90 C 585,90 637,95 680,106 723,117 757,133 784,156 810,178 829,206 841,241 852,275 858,316 858,363 Z"/>
   <glyph unicode="А" horiz-adv-x="1483" d="M 461,53 L 461,0 20,0 20,53 172,80 629,1352 819,1352 1294,80 1464,53 1464,0 897,0 897,53 1077,80 944,467 416,467 281,80 461,53 Z M 676,1208 L 446,557 913,557 676,1208 Z"/>
   <glyph unicode="V" horiz-adv-x="1456" d="M 1456,1341 L 1456,1288 1309,1262 770,-31 719,-31 174,1262 23,1288 23,1341 565,1341 565,1288 385,1262 791,275 1196,1262 1020,1288 1020,1341 1456,1341 Z"/>
   <glyph unicode="I" horiz-adv-x="557" d="M 438,80 L 610,53 610,0 74,0 74,53 246,80 246,1262 74,1288 74,1341 610,1341 610,1288 438,1262 438,80 Z"/>
   <glyph unicode="9" horiz-adv-x="901" d="M 66,932 C 66,1001 76,1062 96,1115 116,1168 145,1212 182,1248 219,1283 265,1310 318,1329 371,1347 431,1356 498,1356 574,1356 640,1343 695,1316 750,1289 796,1248 833,1193 869,1137 896,1066 914,980 931,894 940,792 940,674 940,588 934,511 921,444 908,376 889,316 866,265 843,214 815,170 783,134 750,97 715,68 676,45 637,22 596,6 553,-5 509,-15 464,-20 418,-20 359,-20 306,-17 259,-12 211,-6 164,3 119,14 L 119,246 184,246 219,102 C 232,96 246,91 262,86 277,81 294,77 311,74 328,70 345,67 363,66 380,64 397,63 414,63 461,63 504,73 545,93 585,112 620,144 650,188 680,232 704,289 723,360 741,430 752,516 755,617 711,592 663,572 612,556 561,540 505,532 446,532 390,532 339,541 292,558 245,575 205,600 172,634 138,667 112,709 94,759 75,809 66,867 66,932 Z M 500,1276 C 414,1276 351,1246 311,1187 270,1127 250,1041 250,928 250,873 256,827 267,789 278,751 294,720 315,697 336,673 361,656 392,645 422,634 457,629 496,629 540,629 584,634 628,643 672,652 715,665 756,682 756,780 751,866 742,941 733,1015 718,1077 698,1127 678,1176 652,1214 619,1239 586,1264 547,1276 500,1276 Z"/>
   <glyph unicode="7" horiz-adv-x="848" d="M 201,1024 L 135,1024 135,1341 965,1341 965,1264 367,0 238,0 825,1188 236,1188 201,1024 Z"/>
   <glyph unicode="6" horiz-adv-x="901" d="M 963,416 C 963,347 954,285 937,231 919,177 893,131 858,94 823,57 781,28 730,9 679,-10 620,-20 553,-20 480,-20 414,-6 357,23 299,52 250,95 211,152 171,209 141,280 120,365 99,450 88,549 88,662 88,783 102,888 130,975 157,1062 194,1134 241,1191 287,1248 340,1289 401,1316 462,1343 525,1356 590,1356 640,1356 691,1353 742,1346 793,1339 840,1331 881,1321 L 881,1090 815,1090 780,1227 C 768,1234 754,1240 739,1245 723,1250 707,1255 690,1259 673,1263 656,1266 639,1269 622,1271 605,1272 590,1272 543,1272 500,1261 463,1238 425,1215 392,1181 365,1135 338,1089 316,1031 301,962 285,893 276,811 273,717 321,742 374,763 431,779 488,795 544,803 600,803 656,803 707,795 752,780 797,764 835,740 866,708 897,676 921,636 938,587 955,538 963,481 963,416 Z M 549,59 C 592,59 628,66 657,80 686,94 710,115 728,144 746,172 759,207 767,250 774,292 778,341 778,397 778,506 761,585 727,634 692,683 638,707 563,707 518,707 470,703 421,694 371,685 321,673 272,657 272,561 277,476 288,402 298,328 314,266 337,215 360,164 388,125 423,99 458,72 500,59 549,59 Z"/>
   <glyph unicode="5" horiz-adv-x="848" d="M 485,784 C 560,784 626,777 683,762 740,747 788,723 827,692 866,661 895,621 915,573 934,524 944,466 944,399 944,336 935,278 916,227 897,176 867,132 828,95 789,58 739,30 680,10 620,-10 550,-20 469,-20 406,-20 347,-16 291,-10 234,-2 181,8 130,23 L 119,305 185,305 230,117 C 242,110 257,104 274,97 291,90 309,85 329,80 349,75 370,71 391,68 412,65 433,63 453,63 515,63 566,71 606,87 645,102 677,124 700,153 723,182 738,216 747,256 756,296 760,340 760,389 760,441 756,486 747,525 738,564 721,596 697,622 673,648 640,668 599,681 557,694 503,700 438,700 399,700 364,697 334,692 304,687 279,681 260,676 L 164,676 164,1341 844,1341 844,1188 254,1188 254,760 C 266,763 280,765 295,768 310,771 326,773 345,776 363,778 384,780 407,782 430,783 456,784 485,784 Z"/>
   <glyph unicode="4" horiz-adv-x="980" d="M 810,295 L 810,0 638,0 638,295 40,295 40,428 695,1348 810,1348 810,438 992,438 992,295 810,295 Z M 638,1113 L 633,1113 153,438 638,438 638,1113 Z"/>
   <glyph unicode="3" horiz-adv-x="875" d="M 944,365 C 944,304 933,250 912,203 891,155 860,115 820,82 779,49 730,23 671,6 612,-11 544,-20 469,-20 403,-20 339,-16 277,-8 215,0 159,10 109,23 L 98,305 164,305 209,117 C 221,110 237,104 256,97 275,90 296,85 319,80 341,75 364,71 388,68 411,65 433,63 453,63 515,63 566,71 606,86 645,102 677,123 700,151 723,179 738,212 747,251 756,290 760,332 760,378 760,430 753,474 738,508 723,543 703,571 678,592 652,613 622,629 588,638 553,648 516,653 477,653 L 334,653 334,748 477,748 C 552,748 608,770 644,813 680,856 698,922 698,1010 698,1054 694,1092 685,1125 676,1158 661,1185 642,1207 623,1229 598,1245 567,1256 536,1267 498,1272 453,1272 433,1272 413,1271 393,1268 372,1265 353,1261 334,1256 315,1251 298,1245 282,1239 266,1232 252,1226 240,1219 L 205,1055 139,1055 139,1313 C 162,1319 186,1325 209,1330 232,1335 257,1340 282,1344 307,1347 334,1350 362,1353 390,1355 420,1356 453,1356 594,1356 701,1329 774,1275 847,1221 883,1138 883,1026 883,984 877,945 866,909 855,872 837,840 813,812 789,784 759,761 722,742 685,723 641,709 590,702 711,688 801,653 858,598 915,542 944,464 944,365 Z"/>
   <glyph unicode="2" horiz-adv-x="848" d="M 911,0 L 90,0 90,147 C 157,210 219,266 276,316 332,365 383,412 428,455 473,498 512,539 546,578 579,617 607,658 630,701 652,744 669,790 680,839 691,888 696,944 696,1006 696,1093 676,1159 637,1204 598,1249 533,1272 444,1272 424,1272 404,1271 385,1268 365,1265 346,1261 328,1256 310,1251 293,1245 278,1239 262,1232 248,1226 236,1219 L 201,1055 135,1055 135,1313 C 186,1325 236,1335 285,1344 334,1352 387,1356 444,1356 591,1356 701,1326 775,1265 848,1204 885,1117 885,1006 885,951 878,901 864,854 849,807 829,763 802,720 775,677 743,634 704,593 665,551 621,508 572,463 523,418 469,371 410,321 351,270 288,215 221,154 L 911,154 911,0 Z"/>
   <glyph unicode="1" horiz-adv-x="742" d="M 627,80 L 901,53 901,0 180,0 180,53 455,80 455,1174 184,1077 184,1130 575,1352 627,1352 627,80 Z"/>
   <glyph unicode="0" horiz-adv-x="901" d="M 946,676 C 946,564 937,465 920,378 902,291 875,219 839,160 803,101 757,56 702,26 647,-5 581,-20 506,-20 365,-20 258,39 186,158 114,277 78,449 78,676 78,898 114,1068 186,1186 258,1303 367,1362 514,1362 655,1362 763,1304 836,1188 909,1071 946,901 946,676 Z M 762,676 C 762,772 758,858 750,933 741,1008 727,1072 708,1124 688,1175 662,1215 629,1242 596,1269 555,1282 506,1282 457,1282 416,1269 385,1242 353,1215 328,1175 310,1124 292,1072 280,1008 273,933 266,858 262,772 262,676 262,580 266,494 273,418 280,341 292,277 310,224 328,171 353,130 385,102 416,73 457,59 506,59 555,59 596,73 629,102 662,130 688,171 708,224 727,277 741,341 750,418 758,494 762,580 762,676 Z"/>
   <glyph unicode="-" horiz-adv-x="557" d="M 76,406 L 76,559 608,559 608,406 76,406 Z"/>
   <glyph unicode=")" horiz-adv-x="557" d="M 66,-436 L 66,-352 C 116,-323 159,-290 195,-253 231,-215 261,-174 286,-131 311,-87 331,-40 346,10 361,59 372,111 380,164 387,217 392,271 395,327 398,382 399,438 399,494 399,578 396,661 390,743 383,825 369,903 346,977 323,1050 289,1118 245,1180 201,1241 141,1294 66,1337 L 66,1421 C 155,1374 232,1322 298,1267 364,1212 419,1148 463,1075 506,1002 539,919 560,825 581,730 592,620 592,494 592,368 581,258 560,163 539,68 506,-15 463,-89 419,-161 364,-226 298,-282 232,-337 155,-389 66,-436 Z"/>
   <glyph unicode="(" horiz-adv-x="557" d="M 283,494 C 283,438 284,382 287,327 290,271 295,217 303,164 310,111 322,59 337,10 352,-40 371,-87 396,-131 421,-174 451,-215 487,-253 523,-290 566,-323 616,-352 L 616,-436 C 527,-389 449,-337 384,-282 318,-226 263,-161 220,-89 176,-15 143,68 122,163 101,258 90,368 90,494 90,620 101,730 122,825 143,919 176,1002 220,1075 263,1148 318,1212 384,1267 449,1322 527,1374 616,1421 L 616,1337 C 541,1294 481,1241 437,1180 393,1118 360,1050 337,977 314,903 299,825 293,743 286,661 283,578 283,494 Z"/>
   <glyph unicode=" " horiz-adv-x="503"/>
  </font>
 </defs>
 <defs class="TextShapeIndex">
  <g ooo:slide="id1" ooo:id-list="id3 id4 id5 id6 id7 id8 id9 id10 id11 id12 id13 id14 id15"/>
 </defs>
 <defs class="EmbeddedBulletChars">
  <g id="bullet-char-template(57356)" transform="scale(0.00048828125,-0.00048828125)">
   <path d="M 580,1141 L 1163,571 580,0 -4,571 580,1141 Z"/>
  </g>
  <g id="bullet-char-template(57354)" transform="scale(0.00048828125,-0.00048828125)">
   <path d="M 8,1128 L 1137,1128 1137,0 8,0 8,1128 Z"/>
  </g>
  <g id="bullet-char-template(10146)" transform="scale(0.00048828125,-0.00048828125)">
   <path d="M 174,0 L 602,739 174,1481 1456,739 174,0 Z M 1358,739 L 309,1346 659,739 1358,739 Z"/>
  </g>
  <g id="bullet-char-template(10132)" transform="scale(0.00048828125,-0.00048828125)">
   <path d="M 2015,739 L 1276,0 717,0 1260,543 174,543 174,936 1260,936 717,1481 1274,1481 2015,739 Z"/>
  </g>
  <g id="bullet-char-template(10007)" transform="scale(0.00048828125,-0.00048828125)">
   <path d="M 0,-2 C -7,14 -16,27 -25,37 L 356,567 C 262,823 215,952 215,954 215,979 228,992 255,992 264,992 276,990 289,987 310,991 331,999 354,1012 L 381,999 492,748 772,1049 836,1024 860,1049 C 881,1039 901,1025 922,1006 886,937 835,863 770,784 769,783 710,716 594,584 L 774,223 C 774,196 753,168 711,139 L 727,119 C 717,90 699,76 672,76 641,76 570,178 457,381 L 164,-76 C 142,-110 111,-127 72,-127 30,-127 9,-110 8,-76 1,-67 -2,-52 -2,-32 -2,-23 -1,-13 0,-2 Z"/>
  </g>
  <g id="bullet-char-template(10004)" transform="scale(0.00048828125,-0.00048828125)">
   <path d="M 285,-33 C 182,-33 111,30 74,156 52,228 41,333 41,471 41,549 55,616 82,672 116,743 169,778 240,778 293,778 328,747 346,684 L 369,508 C 377,444 397,411 428,410 L 1163,1116 C 1174,1127 1196,1133 1229,1133 1271,1133 1292,1118 1292,1087 L 1292,965 C 1292,929 1282,901 1262,881 L 442,47 C 390,-6 338,-33 285,-33 Z"/>
  </g>
  <g id="bullet-char-template(9679)" transform="scale(0.00048828125,-0.00048828125)">
   <path d="M 813,0 C 632,0 489,54 383,161 276,268 223,411 223,592 223,773 276,916 383,1023 489,1130 632,1184 813,1184 992,1184 1136,1130 1245,1023 1353,916 1407,772 1407,592 1407,412 1353,268 1245,161 1136,54 992,0 813,0 Z"/>
  </g>
  <g id="bullet-char-template(8226)" transform="scale(0.00048828125,-0.00048828125)">
   <path d="M 346,457 C 273,457 209,483 155,535 101,586 74,649 74,723 74,796 101,859 155,911 209,963 273,989 346,989 419,989 480,963 531,910 582,859 608,796 608,723 608,648 583,586 532,535 482,483 420,457 346,457 Z"/>
  </g>
  <g id="bullet-char-template(8211)" transform="scale(0.00048828125,-0.00048828125)">
   <path d="M -4,459 L 1135,459 1135,606 -4,606 -4,459 Z"/>
  </g>
 </defs>
 <defs class="TextEmbeddedBitmaps"/>
 <g>
  <g id="id2" class="Master_Slide">
   <g id="bg-id2" class="Background"/>
   <g id="bo-id2" class="BackgroundObjects"/>
  </g>
 </g>
 <g class="SlideGroup">
  <g>
   <g id="id1" class="Slide" clip-path="url(#presentation_clip_path)">
    <g class="Page">
     <g class="com.sun.star.drawing.TextShape">
      <g id="id3">
       <text class="TextShape"><tspan class="TextParagraph" font-family="Liberation Serif, serif" font-size="635px" font-weight="400"><tspan class="TextPosition" x="3282" y="4232"><tspan fill="rgb(0,0,0)" stroke="none">Екатерина I</tspan></tspan></tspan><tspan class="TextParagraph" font-family="Liberation Serif, serif" font-size="494px" font-weight="400"><tspan class="TextPosition" x="3661" y="4808"><tspan fill="rgb(0,0,0)" stroke="none">1725 - 1727</tspan></tspan></tspan></text>
      </g>
     </g>
     <g class="com.sun.star.drawing.TextShape">
      <g id="id4">
       <text class="TextShape"><tspan class="TextParagraph" font-family="Liberation Serif, serif" font-size="635px" font-weight="400"><tspan class="TextPosition" x="8079" y="4256"><tspan fill="rgb(0,0,0)" stroke="none">Петр II</tspan></tspan></tspan><tspan class="TextParagraph" font-family="Liberation Serif, serif" font-size="494px" font-weight="400"><tspan class="TextPosition" x="7837" y="4832"><tspan fill="rgb(0,0,0)" stroke="none">1727 - 1730</tspan></tspan></tspan></text>
      </g>
     </g>
     <g class="com.sun.star.drawing.TextShape">
      <g id="id5">
       <text class="TextShape"><tspan class="TextParagraph" font-family="Liberation Serif, serif" font-size="635px" font-weight="400"><tspan class="TextPosition" x="11683" y="4232"><tspan fill="rgb(0,0,0)" stroke="none">Анна Иоановна</tspan></tspan></tspan><tspan class="TextParagraph" font-family="Liberation Serif, serif" font-size="494px" font-weight="400"><tspan class="TextPosition" x="12710" y="4808"><tspan fill="rgb(0,0,0)" stroke="none">1730-1740</tspan></tspan></tspan></text>
      </g>
     </g>
     <g class="com.sun.star.drawing.LineShape">
      <g id="id6">
       <path fill="none" stroke="rgb(0,0,0)" d="M 6588,4175 L 7428,4175"/>
       <path fill="rgb(0,0,0)" stroke="none" d="M 7858,4175 L 7408,4025 7408,4325 7858,4175 Z"/>
      </g>
     </g>
     <g class="com.sun.star.drawing.LineShape">
      <g id="id7">
       <path fill="none" stroke="rgb(0,0,0)" d="M 10188,4175 L 11028,4175"/>
       <path fill="rgb(0,0,0)" stroke="none" d="M 11458,4175 L 11008,4025 11008,4325 11458,4175 Z"/>
      </g>
     </g>
     <g class="com.sun.star.drawing.TextShape">
      <g id="id8">
       <text class="TextShape"><tspan class="TextParagraph" font-family="Liberation Serif, serif" font-size="635px" font-weight="400"><tspan class="TextPosition" x="11083" y="7032"><tspan fill="rgb(0,0,0)" stroke="none">Иван VI Антнонович</tspan></tspan></tspan><tspan class="TextParagraph" font-family="Liberation Serif, serif" font-size="494px" font-weight="400"><tspan class="TextPosition" x="11494" y="7608"><tspan fill="rgb(0,0,0)" stroke="none">(при регенстве Берона)</tspan></tspan></tspan><tspan class="TextParagraph" font-family="Liberation Serif, serif" font-size="494px" font-weight="400"><tspan class="TextPosition" x="12855" y="8154"><tspan fill="rgb(0,0,0)" stroke="none">1740-1741</tspan></tspan></tspan></text>
      </g>
     </g>
     <g class="com.sun.star.drawing.LineShape">
      <g id="id9">
       <path fill="none" stroke="rgb(0,0,0)" d="M 13746,5075 L 13716,5904"/>
       <path fill="rgb(0,0,0)" stroke="none" d="M 13700,6334 L 13866,5890 13567,5879 13700,6334 Z"/>
      </g>
     </g>
     <g class="com.sun.star.drawing.LineShape">
      <g id="id10">
       <path fill="none" stroke="rgb(0,0,0)" d="M 10658,7275 L 9818,7275"/>
       <path fill="rgb(0,0,0)" stroke="none" d="M 9388,7275 L 9838,7425 9838,7125 9388,7275 Z"/>
      </g>
     </g>
     <g class="com.sun.star.drawing.TextShape">
      <g id="id11">
       <text class="TextShape"><tspan class="TextParagraph" font-family="Liberation Serif, serif" font-size="635px" font-weight="400"><tspan class="TextPosition" x="3338" y="7256"><tspan fill="rgb(0,0,0)" stroke="none">Елизавета Петровна</tspan></tspan></tspan><tspan class="TextParagraph" font-family="Liberation Serif, serif" font-size="494px" font-weight="400"><tspan class="TextPosition" x="4868" y="7832"><tspan fill="rgb(0,0,0)" stroke="none">1741 - 1761</tspan></tspan></tspan></text>
      </g>
     </g>
     <g class="com.sun.star.drawing.LineShape">
      <g id="id12">
       <path fill="none" stroke="rgb(0,0,0)" d="M 6140,8075 L 6110,8904"/>
       <path fill="rgb(0,0,0)" stroke="none" d="M 6094,9334 L 6260,8890 5961,8879 6094,9334 Z"/>
      </g>
     </g>
     <g class="com.sun.star.drawing.TextShape">
      <g id="id13">
       <text class="TextShape"><tspan class="TextParagraph" font-family="Liberation Serif, serif" font-size="635px" font-weight="400"><tspan class="TextPosition" x="4974" y="10256"><tspan fill="rgb(0,0,0)" stroke="none">Петр III</tspan></tspan></tspan><tspan class="TextParagraph" font-family="Liberation Serif, serif" font-size="494px" font-weight="400"><tspan class="TextPosition" x="4838" y="10832"><tspan fill="rgb(0,0,0)" stroke="none">1761 - 1762</tspan></tspan></tspan></text>
      </g>
     </g>
     <g class="com.sun.star.drawing.LineShape">
      <g id="id14">
       <path fill="none" stroke="rgb(0,0,0)" d="M 7388,10275 L 8228,10275"/>
       <path fill="rgb(0,0,0)" stroke="none" d="M 8658,10275 L 8208,10125 8208,10425 8658,10275 Z"/>
      </g>
     </g>
     <g class="com.sun.star.drawing.TextShape">
      <g id="id15">
       <text class="TextShape"><tspan class="TextParagraph" font-family="Liberation Serif, serif" font-size="635px" font-weight="400"><tspan class="TextPosition" x="9039" y="10256"><tspan fill="rgb(0,0,0)" stroke="none">Екатерина II</tspan></tspan></tspan><tspan class="TextParagraph" font-family="Liberation Serif, serif" font-size="494px" font-weight="400"><tspan class="TextPosition" x="9524" y="10832"><tspan fill="rgb(0,0,0)" stroke="none">1762 - 1796</tspan></tspan></tspan></text>
      </g>
     </g>
    </g>
   </g>
  </g>
 </g>
</svg>